453
Atomic Postitions for ucas
Ar 21.1739812488 17.7743795628 0.0
Ar 35.6005563104 17.8144436468 0.0
Ar 35.3904688876 11.1352261728 0.0
Ar 28.0737168802 23.6388017107 0.0
Ar 32.4764690246 10.6753558588 0.0
Ar 35.5655053714 16.7006308581 0.0
Ar 29.5677835045 10.2117853511 0.0
Ar 31.5293441258 11.2635466963 0.0
Ar 31.5971668063 13.4902447501 0.0
Ar 27.1297478819 24.2300933652 0.0
Ar 33.4914660514 12.314795936 0.0
Ar 33.5973405277 15.6524602613 0.0
Ar 29.6702665957 13.5506892627 0.0
Ar 22.883604645 13.1633020341 0.0
Ar 32.6880681966 17.3527262976 0.0
Ar 33.6331382141 16.7651358302 0.0
Ar 28.9804925205 21.9363869279 0.0
Ar 34.5074045966 13.9522997401 0.0
Ar 30.9059166342 21.8653024767 0.0
Ar 24.792761715 12.0146834364 0.0
Ar 24.1109865141 20.4443634412 0.0
Ar 35.4573806648 13.3628659852 0.0
Ar 27.1710247157 25.3459870905 0.0
Ar 25.1198540409 22.0755326509 0.0
Ar 31.7798905673 19.053367032 0.0
Ar 34.5781496346 16.1771860336 0.0
Ar 30.5153244735 9.62577352869 0.0
Ar 34.4384791811 11.7255494171 0.0
Ar 31.5632998034 12.3760406889 0.0
Ar 29.5360467385 9.09915242531 0.0
Ar 23.8144447443 11.474793551 0.0
Ar 23.8390032353 12.5903083811 0.0
Ar 30.7237905581 16.302485643 0.0
Ar 28.6536212797 11.9091774048 0.0
Ar 25.7448768618 11.4351021027 0.0
Ar 29.7404863029 15.7766110076 0.0
Ar 33.8105728506 22.3296439258 0.0
Ar 22.0614222752 16.0365129157 0.0
Ar 28.8805707832 18.6059735811 0.0
Ar 24.1729981925 22.6680106779 0.0
Ar 32.7243333156 18.4653695617 0.0
Ar 30.8661665891 20.7512892815 0.0
Ar 30.8292601134 19.6384962821 0.0
Ar 33.7422945947 20.1036687399 0.0
Ar 33.8498606709 23.445770487 0.0
Ar 25.849706429 14.7782861635 0.0
Ar 22.1702498493 19.4115519029 0.0
Ar 31.8865988084 22.3906908586 0.0
Ar 35.4921198662 14.4762259944 0.0
Ar 29.6339758802 12.4377702185 0.0
Ar 27.6725503167 11.3835225452 0.0
Ar 32.6505279956 16.2404449152 0.0
Ar 35.5282863485 15.5882528859 0.0
Ar 31.4634562459 9.03358696486 0.0
Ar 30.5485292449 10.7384147905 0.0
Ar 22.1409276998 18.2900312838 0.0
Ar 26.664804287 9.73621909329 0.0
Ar 32.5806956406 14.01509523 0.0
Ar 27.7063798998 12.5011357005 0.0
Ar 34.4723111333 12.8382541521 0.0
Ar 30.7946944055 18.5294395707 0.0
Ar 30.6163332626 12.9635814189 0.0
Ar 33.7045784858 18.9893252221 0.0
Ar 33.5619024835 14.5402568717 0.0
Ar 34.7213526114 20.6308556236 0.0
Ar 34.649227079 18.4018691874 0.0
Ar 22.1015559655 17.1618784895 0.0
Ar 30.037930905 24.6803756862 0.0
Ar 23.1418455159 19.9217651873 0.0
Ar 29.0556312872 24.1581438243 0.0
Ar 26.6956110379 10.8524935053 0.0
Ar 22.9976935592 15.4337912945 0.0
Ar 33.5264607282 13.4273097736 0.0
Ar 30.5810918319 11.850847379 0.0
Ar 34.6851225388 19.5153526822 0.0
Ar 33.6685951394 17.8764050756 0.0
Ar 26.1866454156 24.8239181328 0.0
Ar 33.4251270652 10.0865143754 0.0
Ar 26.724978216 11.967365804 0.0
Ar 27.8148299296 15.836154824 0.0
Ar 22.8535793455 12.0441593038 0.0
Ar 30.651492846 14.0770144198 0.0
Ar 31.9624753169 24.6231927494 0.0
Ar 33.4575262426 11.2019279963 0.0
Ar 31.6691246923 15.7154209144 0.0
Ar 31.8127485951 20.1647913904 0.0
Ar 32.7603829381 19.578499254 0.0
Ar 27.9963721871 21.4161735388 0.0
Ar 32.8298952586 21.8030783924 0.0
Ar 26.0045954149 19.2535961094 0.0
Ar 31.8488534632 21.2766253275 0.0
Ar 30.981271957 24.0939881749 0.0
Ar 30.9437443168 22.9788311284 0.0
Ar 29.0182654908 23.047310215 0.0
Ar 25.9698169132 18.1349374725 0.0
Ar 24.7666875566 10.9013401828 0.0
Ar 27.6418700841 10.268299857 0.0
Ar 31.4950678748 10.1498910747 0.0
Ar 28.6202297153 10.7974468499 0.0
Ar 21.8782103373 12.5950603763 0.0
Ar 26.8328634533 15.3071705435 0.0
Ar 32.4445073156 9.5598409254 0.0
Ar 22.9377048799 14.2926107377 0.0
Ar 32.5439469047 12.9023428222 0.0
Ar 27.893209854 18.072208703 0.0
Ar 29.1005482612 25.2740161386 0.0
Ar 26.9816380525 19.7784497564 0.0
Ar 28.7956776304 16.365721255 0.0
Ar 31.6334255043 14.6027033439 0.0
Ar 29.8164232308 18.0054743838 0.0
Ar 29.9244578872 21.3415780183 0.0
Ar 34.6161885779 17.2894975879 0.0
Ar 27.0161389136 20.8931328086 0.0
Ar 25.0281615104 18.7290769877 0.0
Ar 31.7061138878 16.8281085273 0.0
Ar 25.0592634685 19.8487149584 0.0
Ar 24.1333720507 21.5564611737 0.0
Ar 33.7759276714 21.217147891 0.0
Ar 23.0371865683 16.5595046743 0.0
Ar 31.0158721137 25.2153278518 0.0
Ar 23.9734252341 15.9605900772 0.0
Ar 29.6010103587 11.3241101229 0.0
Ar 34.4070165669 10.6105940159 0.0
Ar 35.4234667946 12.2502376395 0.0
Ar 24.2146256131 23.7827417552 0.0
Ar 22.0294764767 14.9135331531 0.0
Ar 25.2006528415 24.3030711159 0.0
Ar 28.1137723353 24.7507660808 0.0
Ar 27.0891028927 23.1181476223 0.0
Ar 27.8536064827 16.9533553791 0.0
Ar 28.7195422336 14.1345148121 0.0
Ar 31.7430455552 17.9402583212 0.0
Ar 26.9121478362 17.544066984 0.0
Ar 28.759555862 15.2504190626 0.0
Ar 25.9318372064 17.0166646278 0.0
Ar 30.6868794444 15.1897758373 0.0
Ar 24.8642726861 14.2453375854 0.0
Ar 27.9628378236 20.3010993419 0.0
Ar 21.9464375377 13.7475649117 0.0
Ar 30.0005003353 23.5681656107 0.0
Ar 26.1044213694 22.5967794359 0.0
Ar 34.7953400985 22.8576251314 0.0
Ar 32.9063185882 24.0349275874 0.0
Ar 23.112791323 18.8046049831 0.0
Ar 24.9525471087 16.4875764429 0.0
Ar 24.0511433937 18.2047974656 0.0
Ar 32.8667362525 22.9179136639 0.0
Ar 35.6689878955 20.0419752881 0.0
Ar 35.7070785723 21.1569056385 0.0
Ar 32.5108029841 11.7889686171 0.0
Ar 30.4838136585 8.50974383503 0.0
Ar 35.6339514032 18.9279739033 0.0
Ar 34.7574839659 21.7428023383 0.0
Ar 23.8758134307 13.707458655 0.0
Ar 30.7607218223 17.4146204373 0.0
Ar 25.8910151974 15.8968622909 0.0
Ar 25.7204286841 10.3221858647 0.0
Ar 32.616023022 15.1282238936 0.0
Ar 27.7773215012 14.719065249 0.0
Ar 25.0884038344 20.9642140263 0.0
Ar 26.0365793624 20.3698275738 0.0
Ar 28.0342717895 22.5270839123 0.0
Ar 29.8772581354 20.2189985706 0.0
Ar 27.9300564988 19.1903373999 0.0
Ar 28.9406554554 20.8212401115 0.0
Ar 26.7599193658 13.0813296359 0.0
Ar 23.1453437784 21.0346525782 0.0
Ar 24.0146969107 17.0829051156 0.0
Ar 23.0751601487 17.6827827585 0.0
Ar 27.0502719092 22.0065245159 0.0
Ar 26.1449418999 23.7087568321 0.0
Ar 32.7954570637 20.689717477 0.0
Ar 34.5434359851 15.0648508325 0.0
Ar 28.5878119204 9.68354441993 0.0
Ar 28.1569276835 25.8681090334 0.0
Ar 25.1595530335 23.1866234126 0.0
Ar 23.9242725054 14.8320552774 0.0
Ar 26.948929045 18.6616879279 0.0
Ar 26.7976008572 14.1897336372 0.0
Ar 31.9242513404 23.5056052688 0.0
Ar 24.9083433964 15.365176814 0.0
Ar 28.6849027306 13.0252532084 0.0
Ar 29.778066656 16.8900746879 0.0
Ar 23.1852463525 22.1540919435 0.0
Ar 26.0694695739 21.4843430333 0.0
Ar 29.7040704471 14.6624931187 0.0
Ar 28.8347223365 17.4817692704 0.0
Ar 35.7451699196 22.2722763887 0.0
Ar 29.9620793559 22.4551088897 0.0
Ar 24.9913329533 17.6092671439 0.0
Ar 25.7755108518 12.5487227923 0.0
Ar 26.872406959 16.4250624016 0.0
Ar 24.8244876465 13.1290096048 0.0
Ar 24.0865501396 19.3251816492 0.0
Ar 22.1994393914 21.6430565258 0.0
Ar 25.8095319473 13.6627800458 0.0
Ar 21.1998346838 18.8956451031 0.0
Ar 21.228123294 20.0197154398 0.0
Ar 20.2500386395 20.5978733189 0.0
Ar 21.2191942024 21.1305041975 0.0
Ar 21.2394160006 22.2402857517 0.0
Ar 20.2585550053 21.7085998693 0.0
Ar 20.2500999719 19.4922609797 0.0
Ar 20.232773443 18.379889461 0.0
Ar 19.277896898 18.9727583395 0.0
Ar 21.1273307458 16.6406117425 0.0
Ar 20.1426245616 16.1191217274 0.0
Ar 20.2126523322 17.2600328051 0.0
Ar 21.0822737565 15.5215736217 0.0
Ar 18.312221358 18.45681972 0.0
Ar 19.2563670894 16.7551754376 0.0
Ar 19.2703578597 17.8660198255 0.0
Ar 6.73812252208 9.56240560869 0.0
Ar 17.2066005288 16.3164987811 0.0
Ar 6.26114320101 8.55260262293 0.0
Ar 16.3528600069 19.5211684046 0.0
Ar 6.09878896693 10.4778898762 0.0
Ar 5.4607401739 11.393908406 0.0
Ar 7.37583426514 8.64820644616 0.0
Ar 7.03743382671 12.4968928981 0.0
Ar 18.2935221076 16.30590121 0.0
Ar 17.3197700342 18.9911136123 0.0
Ar 16.5517199208 17.2096364075 0.0
Ar 5.93061396968 12.4037270076 0.0
Ar 17.3190612825 20.0923944161 0.0
Ar 18.3033958275 17.3673899937 0.0
Ar 15.4868911455 17.070325187 0.0
Ar 17.3639905356 17.9068687135 0.0
Ar 4.98523836586 10.382602193 0.0
Ar 7.20843398537 10.5701387291 0.0
Ar 6.56911425258 11.4864626547 0.0
Ar 7.84867985282 9.65366062631 0.0
Ar 16.1170248132 16.1786922572 0.0
Ar 7.67671800591 11.5788950895 0.0
Ar 16.3459486895 18.3563079861 0.0
Ar 16.3361437136 20.6323194276 0.0
Ar 15.4114767767 18.9657984672 0.0
Ar 5.62445902503 9.4688479124 0.0
Ar 17.8174131731 15.3724517572 0.0
Ar 18.2989279795 20.6424474588 0.0
Ar 14.9163772229 17.9850842595 0.0
Ar 12.7052349182 17.813145797 0.0
Ar 13.8084956454 17.8983139528 0.0
Ar 13.3121896522 16.8914864357 0.0
Ar 14.4035953418 16.9800957495 0.0
Ar 18.2964903197 19.5452371691 0.0
Ar 19.2801778836 21.1753421747 0.0
Ar 18.3069089873 21.742584629 0.0
Ar 19.2743645214 20.0721449488 0.0
Ar 16.3516534474 21.7429914047 0.0
Ar 17.3221002265 21.1927205374 0.0
Ar 17.3375593089 22.2975463515 0.0
Ar 19.2899943651 22.2801258679 0.0
Ar 18.3210857679 22.8469850696 0.0
Ar 18.3342621415 23.9575313812 0.0
Ar 14.3919292941 21.7626957159 0.0
Ar 15.3666082253 21.1921816103 0.0
Ar 14.3115039612 18.8983979558 0.0
Ar 13.2003369952 18.8124107872 0.0
Ar 12.0982526741 18.7390772176 0.0
Ar 12.2163027543 16.8062461447 0.0
Ar 12.8372602741 15.883246516 0.0
Ar 8.60810718694 13.599924999 0.0
Ar 15.0232738898 16.0666465214 0.0
Ar 11.741483955 15.7967200056 0.0
Ar 10.0185378335 16.6360199197 0.0
Ar 10.9932954927 18.6543955658 0.0
Ar 12.6078756637 19.7467730328 0.0
Ar 17.3519531759 23.405114352 0.0
Ar 11.1186754418 16.7217673222 0.0
Ar 9.54424204951 15.6241677703 0.0
Ar 8.916188114 16.5474352821 0.0
Ar 8.44261614842 15.5353136793 0.0
Ar 10.643929354 15.711760621 0.0
Ar 11.6045673589 17.7312075311 0.0
Ar 10.501917786 17.6456516536 0.0
Ar 9.3968543024 17.5585699845 0.0
Ar 9.88571164725 18.5673753001 0.0
Ar 13.9311589064 15.9727875823 0.0
Ar 13.4682953457 14.9642396856 0.0
Ar 12.3721827672 14.8741917287 0.0
Ar 11.2747416944 14.7861112089 0.0
Ar 10.1757939562 14.7004582405 0.0
Ar 9.07481194602 14.6123451206 0.0
Ar 9.71027403802 13.6885683825 0.0
Ar 10.8116632917 13.7759528286 0.0
Ar 11.9121003926 13.8641228438 0.0
Ar 13.0109157303 13.9555650421 0.0
Ar 12.5567722416 12.9464691838 0.0
Ar 10.3512199965 12.7663652998 0.0
Ar 9.24758178239 12.6777047973 0.0
Ar 8.14341602599 12.587870797 0.0
Ar 8.78476114822 11.6681098861 0.0
Ar 7.50469504914 13.5081615037 0.0
Ar 7.97247638477 14.5211319462 0.0
Ar 8.77627344915 18.4799927174 0.0
Ar 11.4962380744 19.6619977615 0.0
Ar 11.4542633562 12.8545124091 0.0
Ar 13.6594181582 13.0411063557 0.0
Ar 14.1087407008 14.050703094 0.0
Ar 14.561682283 15.0602371313 0.0
Ar 14.7600196935 13.1427733269 0.0
Ar 15.2047510237 14.1549679114 0.0
Ar 12.4847397093 8.10034114633 0.0
Ar 11.3616445064 8.00368414719 0.0
Ar 12.9551585409 9.10886548766 0.0
Ar 12.3011698402 10.0179230193 0.0
Ar 11.8354505061 9.01219230487 0.0
Ar 13.4172836606 10.1141105174 0.0
Ar 12.1034864548 11.9372616598 0.0
Ar 13.2091010091 12.0322399681 0.0
Ar 12.7590158809 11.0237378792 0.0
Ar 11.6475255712 10.9304792738 0.0
Ar 10.3830456724 19.5747736124 0.0
Ar 8.29084815401 17.469185277 0.0
Ar 7.81195695719 16.4556701622 0.0
Ar 7.33900957628 15.4413664605 0.0
Ar 10.242570465 7.91175245561 0.0
Ar 10.7176549921 8.91966150243 0.0
Ar 8.31688089865 10.660742942 0.0
Ar 8.95989059559 9.74457838982 0.0
Ar 9.4274530599 10.7503564056 0.0
Ar 9.89121994949 11.7575070326 0.0
Ar 11.1862754908 9.92405790278 0.0
Ar 10.53761523 10.8396162013 0.0
Ar 9.60154766942 8.82888692862 0.0
Ar 15.6541957495 15.1654021949 0.0
Ar 15.8565818411 13.2535826375 0.0
Ar 16.2997130926 14.2678397883 0.0
Ar 14.3156761533 12.1314634342 0.0
Ar 17.3941002062 14.3839091794 0.0
Ar 16.7413023432 15.2829043348 0.0
Ar 21.0705818295 14.4110167074 0.0
Ar 20.087473469 15.0127042931 0.0
Ar 19.1193878922 15.5796666141 0.0
Ar 16.950181355 13.3732534133 0.0
Ar 15.420810886 12.2396363158 0.0
Ar 16.0936402962 11.3449740305 0.0
Ar 16.5243232853 12.3587766111 0.0
Ar 18.5373896968 14.5781821631 0.0
Ar 18.0389549776 13.5183044729 0.0
Ar 17.6283675499 12.495438538 0.0
Ar 17.2075049622 11.4781352078 0.0
Ar 14.9817288599 11.2275994248 0.0
Ar 14.5357035454 10.2179358134 0.0
Ar 15.6563355149 10.331924723 0.0
Ar 16.7785252898 10.4618911724 0.0
Ar 17.9035191693 10.611594657 0.0
Ar 18.324545983 11.6309474122 0.0
Ar 18.7292781509 12.6475546196 0.0
Ar 19.0359563211 10.7929494841 0.0
Ar 18.6098972669 9.76053363323 0.0
Ar 17.4720154658 9.59098578503 0.0
Ar 16.3384413776 9.44618126141 0.0
Ar 15.207245052 9.32102984075 0.0
Ar 19.101199635 13.6651539305 0.0
Ar 20.1279367479 13.9206048995 0.0
Ar 19.8424370949 12.861519089 0.0
Ar 20.9476474101 13.1963081864 0.0
Ar 19.7359635212 9.9457534161 0.0
Ar 20.1629574796 11.0021334687 0.0
Ar 20.838491027 10.1386564976 0.0
Ar 25.6845072614 9.20017183153 0.0
Ar 23.7924215203 10.3517059548 0.0
Ar 29.5078291331 7.98100969403 0.0
Ar 28.5296696267 7.44689966447 0.0
Ar 27.6119054912 9.1522794953 0.0
Ar 26.6331004939 8.61870620688 0.0
Ar 28.5591237684 8.56771284673 0.0
Ar 27.5812343027 8.03556861101 0.0
Ar 6.86720509353 14.4278023168 0.0
Ar 7.66748647723 18.390629459 0.0
Ar 9.2702892785 19.4883000188 0.0
Ar 12.5138861421 21.658824212 0.0
Ar 13.7057021682 19.7994750092 0.0
Ar 13.1749756989 20.7659256705 0.0
Ar 11.3858210414 21.5757137143 0.0
Ar 12.0144039067 20.6648291144 0.0
Ar 10.8869458632 20.5785523434 0.0
Ar 13.8698042979 11.1214235758 0.0
Ar 10.9972481766 11.8465013566 0.0
Ar 10.0722749756 9.83374971614 0.0
Ar 19.4539050289 11.8272500644 0.0
Ar 20.6036888837 12.0871342645 0.0
Ar 21.2663688968 11.2199910672 0.0
Ar 21.9120790667 10.3481762874 0.0
Ar 22.8442472184 10.9245032574 0.0
Ar 22.8304467195 9.76958879011 0.0
Ar 21.5869934764 9.29347345743 0.0
Ar 20.4547197286 9.0914818703 0.0
Ar 24.7482488605 9.79040493404 0.0
Ar 23.795942041 9.22362620407 0.0
Ar 19.321902681 8.9056023397 0.0
Ar 17.0319880064 8.56840836385 0.0
Ar 15.8857367032 8.4289619588 0.0
Ar 14.0793531895 9.21107280948 0.0
Ar 19.3035092314 23.3871791041 0.0
Ar 23.2251185345 23.2670290202 0.0
Ar 20.2717207077 22.8168688462 0.0
Ar 15.3852240108 22.3017975289 0.0
Ar 13.4154516211 22.3215445491 0.0
Ar 11.8859916487 22.5687003992 0.0
Ar 10.763591622 22.4936359962 0.0
Ar 10.2665442101 21.4944623385 0.0
Ar 8.1584024768 19.4014920912 0.0
Ar 9.76859461364 20.4928621876 0.0
Ar 6.39872573164 13.4151599661 0.0
Ar 14.7459911589 8.30836858075 0.0
Ar 13.6121018932 8.20186634324 0.0
Ar 8.48739078989 8.738960471 0.0
Ar 18.1792487628 8.72930509849 0.0
Ar 4.82267361051 12.309725555 0.0
Ar 4.34838041329 11.2978765395 0.0
Ar 5.29202155105 13.3212859229 0.0
Ar 4.18145575362 13.2254104466 0.0
Ar 4.65088110129 14.2390801073 0.0
Ar 5.76116697834 14.3339351894 0.0
Ar 7.1845821789 17.376840605 0.0
Ar 6.70649234538 16.3620140718 0.0
Ar 7.04411685748 19.3157991356 0.0
Ar 8.65394673015 20.4089906447 0.0
Ar 9.64730697831 22.4142898834 0.0
Ar 6.23306229927 15.3478596535 0.0
Ar 6.07315907792 17.2846355709 0.0
Ar 5.5961271771 16.2688389195 0.0
Ar 6.55517907553 18.300713458 0.0
Ar 7.53837616132 20.3268196566 0.0
Ar 9.1511719585 21.4130197586 0.0
Ar 5.12314744615 15.253380423 0.0
Ar 8.03453711254 21.3340410355 0.0
Ar 3.70840348561 12.2134813373 0.0
Ar 8.01266730402 7.72975433535 0.0
Ar 6.89960461075 7.63745109795 0.0
Ar 9.12642515115 7.82154097404 0.0
Ar 8.52970845006 22.3378220543 0.0
Ar 21.2592115664 23.3526938394 0.0
Ar 22.2281646247 22.7612456446 0.0
Ar 20.2873410206 23.9288047474 0.0
Ar 19.3164076802 24.4999281537 0.0
Ar 17.3646777984 24.5181218374 0.0
Ar 16.369954958 22.8521868169 0.0
Ar 9.02378008742 23.3404173675 0.0
Ar 10.1406757232 23.4185668382 0.0
Ar 11.2567573615 23.4949619089 0.0
Ar 12.3733112808 23.5629831143 0.0
Ar 15.4050720729 23.4142196595 0.0
Ar 14.4227075336 22.8665152792 0.0
Ar 16.3819835695 23.9672909345 0.0
Ar 15.3471983079 20.0746690711 0.0
Ar 14.3734482052 20.6629031567 0.0
Ar 14.4482265143 23.9853827032 0.0
Ar 13.4722684319 23.4371766616 0.0
Ar 23.4722684319 43.4371766616 0.0
