200
Atomic Postitions for ucas
Ar 21.1739812488 17.7743795628 0.0
Ar 35.6005563104 17.8144436468 0.0
Ar 35.3904688876 11.1352261728 0.0
Ar 28.0737168802 23.6388017107 0.0
Ar 32.4764690246 10.6753558588 0.0
Ar 35.5655053714 16.7006308581 0.0
Ar 29.5677835045 10.2117853511 0.0
Ar 31.5293441258 11.2635466963 0.0
Ar 31.5971668063 13.4902447501 0.0
Ar 27.1297478819 24.2300933652 0.0
Ar 33.4914660514 12.314795936 0.0
Ar 33.5973405277 15.6524602613 0.0
Ar 29.6702665957 13.5506892627 0.0
Ar 22.883604645 13.1633020341 0.0
Ar 32.6880681966 17.3527262976 0.0
Ar 33.6331382141 16.7651358302 0.0
Ar 28.9804925205 21.9363869279 0.0
Ar 34.5074045966 13.9522997401 0.0
Ar 30.9059166342 21.8653024767 0.0
Ar 24.792761715 12.0146834364 0.0
Ar 24.1109865141 20.4443634412 0.0
Ar 35.4573806648 13.3628659852 0.0
Ar 27.1710247157 25.3459870905 0.0
Ar 25.1198540409 22.0755326509 0.0
Ar 31.7798905673 19.053367032 0.0
Ar 34.5781496346 16.1771860336 0.0
Ar 30.5153244735 9.62577352869 0.0
Ar 34.4384791811 11.7255494171 0.0
Ar 31.5632998034 12.3760406889 0.0
Ar 29.5360467385 9.09915242531 0.0
Ar 23.8144447443 11.474793551 0.0
Ar 23.8390032353 12.5903083811 0.0
Ar 30.7237905581 16.302485643 0.0
Ar 28.6536212797 11.9091774048 0.0
Ar 25.7448768618 11.4351021027 0.0
Ar 29.7404863029 15.7766110076 0.0
Ar 33.8105728506 22.3296439258 0.0
Ar 22.0614222752 16.0365129157 0.0
Ar 28.8805707832 18.6059735811 0.0
Ar 24.1729981925 22.6680106779 0.0
Ar 32.7243333156 18.4653695617 0.0
Ar 30.8661665891 20.7512892815 0.0
Ar 30.8292601134 19.6384962821 0.0
Ar 33.7422945947 20.1036687399 0.0
Ar 33.8498606709 23.445770487 0.0
Ar 25.849706429 14.7782861635 0.0
Ar 22.1702498493 19.4115519029 0.0
Ar 31.8865988084 22.3906908586 0.0
Ar 35.4921198662 14.4762259944 0.0
Ar 29.6339758802 12.4377702185 0.0
Ar 27.6725503167 11.3835225452 0.0
Ar 32.6505279956 16.2404449152 0.0
Ar 35.5282863485 15.5882528859 0.0
Ar 31.4634562459 9.03358696486 0.0
Ar 30.5485292449 10.7384147905 0.0
Ar 22.1409276998 18.2900312838 0.0
Ar 26.664804287 9.73621909329 0.0
Ar 32.5806956406 14.01509523 0.0
Ar 27.7063798998 12.5011357005 0.0
Ar 34.4723111333 12.8382541521 0.0
Ar 30.7946944055 18.5294395707 0.0
Ar 30.6163332626 12.9635814189 0.0
Ar 33.7045784858 18.9893252221 0.0
Ar 33.5619024835 14.5402568717 0.0
Ar 34.7213526114 20.6308556236 0.0
Ar 34.649227079 18.4018691874 0.0
Ar 22.1015559655 17.1618784895 0.0
Ar 30.037930905 24.6803756862 0.0
Ar 23.1418455159 19.9217651873 0.0
Ar 29.0556312872 24.1581438243 0.0
Ar 26.6956110379 10.8524935053 0.0
Ar 22.9976935592 15.4337912945 0.0
Ar 33.5264607282 13.4273097736 0.0
Ar 30.5810918319 11.850847379 0.0
Ar 34.6851225388 19.5153526822 0.0
Ar 33.6685951394 17.8764050756 0.0
Ar 26.1866454156 24.8239181328 0.0
Ar 33.4251270652 10.0865143754 0.0
Ar 26.724978216 11.967365804 0.0
Ar 27.8148299296 15.836154824 0.0
Ar 22.8535793455 12.0441593038 0.0
Ar 30.651492846 14.0770144198 0.0
Ar 31.9624753169 24.6231927494 0.0
Ar 33.4575262426 11.2019279963 0.0
Ar 31.6691246923 15.7154209144 0.0
Ar 31.8127485951 20.1647913904 0.0
Ar 32.7603829381 19.578499254 0.0
Ar 27.9963721871 21.4161735388 0.0
Ar 32.8298952586 21.8030783924 0.0
Ar 26.0045954149 19.2535961094 0.0
Ar 31.8488534632 21.2766253275 0.0
Ar 30.981271957 24.0939881749 0.0
Ar 30.9437443168 22.9788311284 0.0
Ar 29.0182654908 23.047310215 0.0
Ar 25.9698169132 18.1349374725 0.0
Ar 24.7666875566 10.9013401828 0.0
Ar 27.6418700841 10.268299857 0.0
Ar 31.4950678748 10.1498910747 0.0
Ar 28.6202297153 10.7974468499 0.0
Ar 21.8782103373 12.5950603763 0.0
Ar 26.8328634533 15.3071705435 0.0
Ar 32.4445073156 9.5598409254 0.0
Ar 22.9377048799 14.2926107377 0.0
Ar 32.5439469047 12.9023428222 0.0
Ar 27.893209854 18.072208703 0.0
Ar 29.1005482612 25.2740161386 0.0
Ar 26.9816380525 19.7784497564 0.0
Ar 28.7956776304 16.365721255 0.0
Ar 31.6334255043 14.6027033439 0.0
Ar 29.8164232308 18.0054743838 0.0
Ar 29.9244578872 21.3415780183 0.0
Ar 34.6161885779 17.2894975879 0.0
Ar 27.0161389136 20.8931328086 0.0
Ar 25.0281615104 18.7290769877 0.0
Ar 31.7061138878 16.8281085273 0.0
Ar 25.0592634685 19.8487149584 0.0
Ar 24.1333720507 21.5564611737 0.0
Ar 33.7759276714 21.217147891 0.0
Ar 23.0371865683 16.5595046743 0.0
Ar 31.0158721137 25.2153278518 0.0
Ar 23.9734252341 15.9605900772 0.0
Ar 29.6010103587 11.3241101229 0.0
Ar 34.4070165669 10.6105940159 0.0
Ar 35.4234667946 12.2502376395 0.0
Ar 24.2146256131 23.7827417552 0.0
Ar 22.0294764767 14.9135331531 0.0
Ar 25.2006528415 24.3030711159 0.0
Ar 28.1137723353 24.7507660808 0.0
Ar 27.0891028927 23.1181476223 0.0
Ar 27.8536064827 16.9533553791 0.0
Ar 28.7195422336 14.1345148121 0.0
Ar 31.7430455552 17.9402583212 0.0
Ar 26.9121478362 17.544066984 0.0
Ar 28.759555862 15.2504190626 0.0
Ar 25.9318372064 17.0166646278 0.0
Ar 30.6868794444 15.1897758373 0.0
Ar 24.8642726861 14.2453375854 0.0
Ar 27.9628378236 20.3010993419 0.0
Ar 21.9464375377 13.7475649117 0.0
Ar 30.0005003353 23.5681656107 0.0
Ar 26.1044213694 22.5967794359 0.0
Ar 34.7953400985 22.8576251314 0.0
Ar 32.9063185882 24.0349275874 0.0
Ar 23.112791323 18.8046049831 0.0
Ar 24.9525471087 16.4875764429 0.0
Ar 24.0511433937 18.2047974656 0.0
Ar 32.8667362525 22.9179136639 0.0
Ar 35.6689878955 20.0419752881 0.0
Ar 35.7070785723 21.1569056385 0.0
Ar 32.5108029841 11.7889686171 0.0
Ar 30.4838136585 8.50974383503 0.0
Ar 35.6339514032 18.9279739033 0.0
Ar 34.7574839659 21.7428023383 0.0
Ar 23.8758134307 13.707458655 0.0
Ar 30.7607218223 17.4146204373 0.0
Ar 25.8910151974 15.8968622909 0.0
Ar 25.7204286841 10.3221858647 0.0
Ar 32.616023022 15.1282238936 0.0
Ar 27.7773215012 14.719065249 0.0
Ar 25.0884038344 20.9642140263 0.0
Ar 26.0365793624 20.3698275738 0.0
Ar 28.0342717895 22.5270839123 0.0
Ar 29.8772581354 20.2189985706 0.0
Ar 27.9300564988 19.1903373999 0.0
Ar 28.9406554554 20.8212401115 0.0
Ar 26.7599193658 13.0813296359 0.0
Ar 23.1453437784 21.0346525782 0.0
Ar 24.0146969107 17.0829051156 0.0
Ar 23.0751601487 17.6827827585 0.0
Ar 27.0502719092 22.0065245159 0.0
Ar 26.1449418999 23.7087568321 0.0
Ar 32.7954570637 20.689717477 0.0
Ar 34.5434359851 15.0648508325 0.0
Ar 28.5878119204 9.68354441993 0.0
Ar 28.1569276835 25.8681090334 0.0
Ar 25.1595530335 23.1866234126 0.0
Ar 23.9242725054 14.8320552774 0.0
Ar 26.948929045 18.6616879279 0.0
Ar 26.7976008572 14.1897336372 0.0
Ar 31.9242513404 23.5056052688 0.0
Ar 24.9083433964 15.365176814 0.0
Ar 28.6849027306 13.0252532084 0.0
Ar 29.778066656 16.8900746879 0.0
Ar 23.1852463525 22.1540919435 0.0
Ar 26.0694695739 21.4843430333 0.0
Ar 29.7040704471 14.6624931187 0.0
Ar 28.8347223365 17.4817692704 0.0
Ar 35.7451699196 22.2722763887 0.0
Ar 29.9620793559 22.4551088897 0.0
Ar 24.9913329533 17.6092671439 0.0
Ar 25.7755108518 12.5487227923 0.0
Ar 26.872406959 16.4250624016 0.0
Ar 24.8244876465 13.1290096048 0.0
Ar 24.0865501396 19.3251816492 0.0
Ar 22.1994393914 21.6430565258 0.0
Ar 25.8095319473 13.6627800458 0.0
Ar 21.1998346838 18.8956451031 0.0
Ar 21.228123294 20.0197154398 0.0
Ar 20.2500386395 20.5978733189 0.0
Ar 21.2191942024 21.1305041975 0.0
