219
Atomic Postitions for ucas
Ar 18.3576182562 17.6813327979 0.0
Ar 32.9161017769 18.3752415284 0.0
Ar 32.9472062102 11.4851582598 0.0
Ar 25.0682317135 23.8340571097 0.0
Ar 30.1288931287 11.0029443911 0.0
Ar 32.9685514786 17.2585328508 0.0
Ar 27.2250905685 10.4692195514 0.0
Ar 29.1733345386 11.5953874747 0.0
Ar 29.1235135751 13.8369701783 0.0
Ar 24.0532089822 24.4080056245 0.0
Ar 31.0911500072 12.7099114488 0.0
Ar 31.0431461947 16.0743931742 0.0
Ar 27.1771343114 13.8616148195 0.0
Ar 20.3212556736 13.2077224402 0.0
Ar 30.0474700934 17.714748295 0.0
Ar 31.0697948855 17.1928577065 0.0
Ar 26.1424003305 19.9878153237 0.0
Ar 26.0626675632 22.1856992185 0.0
Ar 32.0259874531 14.3629260068 0.0
Ar 27.9559218654 22.2038762503 0.0
Ar 22.3321245503 12.1527826066 0.0
Ar 21.1702195233 20.4249143179 0.0
Ar 33.0433632684 13.8608897787 0.0
Ar 24.076637525 25.6000182071 0.0
Ar 22.1819065887 22.1040956892 0.0
Ar 29.0514193628 19.392103548 0.0
Ar 32.0161345068 16.6670408251 0.0
Ar 28.2129028765 9.88527673441 0.0
Ar 32.0077134269 12.0681620797 0.0
Ar 29.1462983298 12.6883441914 0.0
Ar 27.2412509652 9.3527053618 0.0
Ar 21.3705302955 11.5440944978 0.0
Ar 21.3599756687 12.6769800015 0.0
Ar 28.0747258558 16.6344062845 0.0
Ar 26.2263258128 12.1654490417 0.0
Ar 23.3266890864 11.6140870156 0.0
Ar 25.2216315551 13.8136685527 0.0
Ar 27.1467306919 16.07972867 0.0
Ar 30.8376517155 22.78029937 0.0
Ar 19.318880519 15.9945194778 0.0
Ar 26.1557196567 18.8924046926 0.0
Ar 27.1315777734 19.4798163101 0.0
Ar 21.2183411423 22.6664171674 0.0
Ar 30.0760217876 18.9074637426 0.0
Ar 28.0354736474 21.1125543293 0.0
Ar 28.098539978 19.9758812032 0.0
Ar 30.9115613513 20.5491305453 0.0
Ar 30.8599745967 23.9498141219 0.0
Ar 23.2597512853 14.9491768362 0.0
Ar 19.2468459398 19.3468158005 0.0
Ar 28.9423048591 22.7280646436 0.0
Ar 32.9179256737 14.9700319982 0.0
Ar 27.2167976519 12.7437702228 0.0
Ar 25.2692047079 11.5824910631 0.0
Ar 30.0691553643 16.5802411227 0.0
Ar 32.9492487843 16.0774146535 0.0
Ar 29.1764373258 9.24575219641 0.0
Ar 28.1902609376 10.9996152404 0.0
Ar 19.3172443605 18.2067412293 0.0
Ar 24.3040979583 9.90693980935 0.0
Ar 30.0896514862 14.3624167642 0.0
Ar 25.2949849432 12.7298473794 0.0
Ar 32.0450472551 13.2234061043 0.0
Ar 28.04363096 18.8672126958 0.0
Ar 28.1884852307 13.2426319339 0.0
Ar 30.9793106272 19.4568108232 0.0
Ar 31.0420826978 14.9130626377 0.0
Ar 31.9528501917 21.1012563064 0.0
Ar 32.0078613185 18.8751357264 0.0
Ar 19.3228435269 17.0902088372 0.0
Ar 26.9928318296 25.0289785492 0.0
Ar 20.2260576941 19.8951300073 0.0
Ar 25.9936840588 24.4849242014 0.0
Ar 24.302844676 10.9797227195 0.0
Ar 20.3146220159 15.3657033044 0.0
Ar 31.0617100662 13.807197856 0.0
Ar 28.1762186238 12.1241454174 0.0
Ar 31.9852285931 19.9881821844 0.0
Ar 31.0416554683 18.3027603706 0.0
Ar 23.0167759186 24.9610628214 0.0
Ar 31.0829216566 10.3373165028 0.0
Ar 24.2799877912 12.1516611895 0.0
Ar 25.1940113014 16.0480589963 0.0
Ar 20.414536444 12.1421603624 0.0
Ar 28.1600259699 14.3879562324 0.0
Ar 28.9463539375 24.931852408 0.0
Ar 31.0671072801 11.4748143504 0.0
Ar 29.0686713872 16.0520909225 0.0
Ar 29.0438327142 20.5136910038 0.0
Ar 29.99800544 19.9788551486 0.0
Ar 25.0798943197 21.5920954883 0.0
Ar 29.9240139577 22.2100948807 0.0
Ar 23.1497413548 19.3198262948 0.0
Ar 19.2107589121 20.4157163768 0.0
Ar 28.9213940837 21.6704280436 0.0
Ar 27.9599044578 24.4392401848 0.0
Ar 27.9696138268 23.3130320001 0.0
Ar 26.0327488603 23.3217198988 0.0
Ar 23.1727106398 18.2551543754 0.0
Ar 22.3437792861 11.0204346149 0.0
Ar 25.2494911113 10.4762707 0.0
Ar 29.1521169501 10.4919164089 0.0
Ar 26.2551331229 11.0111401457 0.0
Ar 19.3769917913 12.5801247373 0.0
Ar 24.2623759557 15.449698323 0.0
Ar 30.1179891492 9.8819001688 0.0
Ar 20.3091499321 14.2654858896 0.0
Ar 30.1075952244 13.2694351053 0.0
Ar 25.1552108354 18.3116419043 0.0
Ar 26.0319869024 25.5720682546 0.0
Ar 24.1173536738 19.9099692904 0.0
Ar 26.13383009 16.6492901352 0.0
Ar 29.0665649924 14.934974442 0.0
Ar 27.0694985772 18.3591750866 0.0
Ar 27.0286812111 21.6522169349 0.0
Ar 32.002116133 17.8051140853 0.0
Ar 24.1569006294 20.9902524744 0.0
Ar 22.2162363325 18.768292677 0.0
Ar 29.0834516422 17.1604044236 0.0
Ar 22.1675366636 19.871032617 0.0
Ar 21.2418360272 21.5521502304 0.0
Ar 30.9384179786 21.6796597158 0.0
Ar 20.2657610652 16.5127279698 0.0
Ar 27.9733095978 25.6354855933 0.0
Ar 21.2650058759 15.9454610621 0.0
Ar 27.2284283556 11.6282462203 0.0
Ar 32.0211409913 10.9312777154 0.0
Ar 32.9651383625 12.6328721315 0.0
Ar 21.1425970964 23.7560298129 0.0
Ar 19.4037914367 14.8368249207 0.0
Ar 22.0426971373 24.4426002998 0.0
Ar 25.0500108887 25.0103269184 0.0
Ar 24.1232721173 23.2582868092 0.0
Ar 25.1916888313 17.1755735809 0.0
Ar 26.1495526118 14.3958441119 0.0
Ar 29.0732163695 18.2831070464 0.0
Ar 24.1575284393 17.7241328546 0.0
Ar 26.2129946807 15.5298039873 0.0
Ar 23.1889153425 17.1434747002 0.0
Ar 28.1013378204 15.4945745842 0.0
Ar 22.3677688639 14.3488013968 0.0
Ar 25.1276237604 20.4852901855 0.0
Ar 19.3381950871 13.7281578909 0.0
Ar 27.0358698133 23.8645768046 0.0
Ar 23.1336596494 22.6908208248 0.0
Ar 31.7696362442 23.3554854787 0.0
Ar 29.8872248196 24.4587041643 0.0
Ar 20.2522040374 18.7870459234 0.0
Ar 22.2572278033 16.5362078963 0.0
Ar 21.2488121842 18.1986153137 0.0
Ar 29.9278929389 23.3589386485 0.0
Ar 32.8762291744 20.5859334011 0.0
Ar 32.9174515671 21.7131864959 0.0
Ar 30.1989716154 12.1481700109 0.0
Ar 28.196055844 8.74762364989 0.0
Ar 32.9368860649 19.4909946686 0.0
Ar 31.9149763347 22.2044102036 0.0
Ar 21.32704397 13.7498374851 0.0
Ar 28.0801940484 17.7550242475 0.0
Ar 23.2090292154 16.0392157881 0.0
Ar 23.3426567231 10.429974614 0.0
Ar 30.0638302463 15.4872496908 0.0
Ar 25.22587786 14.9351046251 0.0
Ar 22.1812939825 20.9641668341 0.0
Ar 23.1356882661 20.4407165654 0.0
Ar 25.1106026459 22.7455270337 0.0
Ar 27.1025410497 20.5401037446 0.0
Ar 25.1725386492 19.3906506112 0.0
Ar 26.0914841873 21.0453442547 0.0
Ar 24.2856580516 13.2376636605 0.0
Ar 20.2217094397 21.0326337191 0.0
Ar 21.2617473132 17.0494287942 0.0
Ar 20.2593482233 17.6216963511 0.0
Ar 24.1027306594 22.1654157811 0.0
Ar 23.1033541005 23.8438022692 0.0
Ar 29.9713401006 21.1238797713 0.0
Ar 31.9623297552 15.4866889154 0.0
Ar 26.2756086361 9.91618438963 0.0
Ar 25.0188004773 26.1982737384 0.0
Ar 22.1324461181 23.2954199396 0.0
Ar 21.2893178049 14.8598114435 0.0
Ar 24.1469191255 18.7992458418 0.0
Ar 24.2446034197 14.3385779545 0.0
Ar 28.9105904686 23.8618330552 0.0
Ar 22.2453676313 15.4384530853 0.0
Ar 26.2707697873 13.2864505088 0.0
Ar 27.1159320387 17.1969760309 0.0
Ar 20.2426609 22.1129505691 0.0
Ar 23.1751803522 21.5778335159 0.0
Ar 27.1196904854 14.9214237062 0.0
Ar 26.1374032971 17.7649416759 0.0
Ar 32.8038762362 22.8503113129 0.0
Ar 27.0136201658 22.7617833519 0.0
Ar 22.2030008339 17.6416051452 0.0
Ar 23.2704389988 12.7229456772 0.0
Ar 24.2285892134 16.5839402587 0.0
Ar 22.2866990351 13.224157455 0.0
Ar 21.2025075314 19.3159607369 0.0
Ar 19.2470848558 21.5575834575 0.0
Ar 23.3054861656 13.7698140737 0.0
Ar 10.3940196252 21.1462623252 0.0
Ar 18.23149922 19.7985114015 0.0
Ar 18.3506083996 16.5355891112 0.0
Ar 15.415040766 13.2110559921 0.0
Ar 6.68540536615 23.4644367936 0.0
Ar 19.5632315439 11.4614517393 0.0
Ar 6.25012318664 22.1619823436 0.0
Ar 16.7665629376 13.1217615618 0.0
Ar 14.5380015143 10.4860891467 0.0
Ar 15.4649715979 9.49423436235 0.0
Ar 15.5980858506 10.6373755414 0.0
Ar 16.1061945605 12.2266704056 0.0
Ar 14.8835537481 12.2224240606 0.0
Ar 13.7110112782 12.611520528 0.0
Ar 6.54950107807 21.051591529 0.0
Ar 8.31076389782 21.4451855259 0.0
Ar 9.37418407747 21.710785213 0.0
Ar 7.45257165999 22.6399687021 0.0
Ar 8.88703230858 20.5036995291 0.0
